Case study: Partial profiles
…
pedigree_size(pedigrees[[1]])

## [1] 217

We can look at the population as a (tidy)graph:

g <- as_tbl_graph(pedigrees)
g

## # A tbl_graph: 730 nodes and 719 edges
## #
## # A rooted forest with 11 trees
## #
## # A tibble: 730 × 4
##   name  gens_from_final ped_id haplotype
##   <chr>           <int>  <int> <list>   
## 1 727                19      4 <int [0]>
## 2 713                18      4 <int [0]>
## 3 704                17      4 <int [0]>
## 4 688                16      4 <int [0]>
## 5 685                15      4 <int [0]>
## 6 673                14      4 <int [0]>
## # ℹ 724 more rows
## #
## # A tibble: 719 × 2
##    from    to
##   <int> <int>
## 1     1     2
## 2     2     3
## 3     3     4
## # ℹ 716 more rows
…
Run a mutation process

Up until now, only the genealogy has been simulated. Now, we run a
mutational process, i.e. assign haplotypes to founders and let
haplotypes flow down the individuals.

We use realistic data. In the package, there is information about the
individual markers:

ystr_markers

## # A tibble: 29 × 5
##    Marker  Mutations Meioses  MutProb Alleles   
##    <fct>       <dbl>   <dbl>    <dbl> <list>    
##  1 DYS438          4   10673 0.000375 <dbl [22]>
##  2 DYS392          8   15418 0.000519 <dbl [22]>
##  3 DYS393         15   14264 0.00105  <dbl [17]>
##  4 DYS437         13   10652 0.00122  <dbl [15]>
##  5 DYS385a        32   26171 0.00122  <dbl [52]>
##  6 DYS385b        32   26171 0.00122  <dbl [52]>
##  7 DYS643          3    2220 0.00135  <dbl [17]>
##  8 DYS448         11    7229 0.00152  <dbl [36]>
##  9 DYS390         33   15612 0.00211  <dbl [19]>
## 10 DYS19          36   16090 0.00224  <dbl [19]>
## # ℹ 19 more rows

Note, that MutProb is the point estimate given by
MutProb = Mutations / Meioses. Information about which
markers that are in which kit is also provided:

ystr_kits

## # A tibble: 88 × 2
##    Marker   Kit        
##    <fct>    <fct>      
##  1 DYS392   Minimal    
##  2 DYS393   Minimal    
##  3 DYS385a  Minimal    
##  4 DYS385b  Minimal    
##  5 DYS390   Minimal    
##  6 DYS19    Minimal    
##  7 DYS391   Minimal    
##  8 DYS389I  Minimal    
##  9 DYS389II Minimal    
## 10 DYS438   PowerPlex Y
## # ℹ 78 more rows
…
partial_kit <- ystr_kits %>% 
  filter(Kit == "PowerPlex Y23") %>% 
  inner_join(ystr_markers, by = "Marker") %>% 
  filter(!(Marker %in% c("DYS437", "DYS448"))) %>% 
  rowwise() %>% # To work on each row
  mutate(IntegerAlleles = list(Alleles[Alleles == round(Alleles)]),
         MinIntAllele = min(IntegerAlleles),
         MaxIntAllele = max(IntegerAlleles)) %>% 
  ungroup() %>% 
  select(-Kit, -Alleles)
partial_kit

## # A tibble: 21 × 7
##    Marker  Mutations Meioses  MutProb IntegerAlleles MinIntAllele MaxIntAllele
##    <fct>       <dbl>   <dbl>    <dbl> <list>                <dbl>        <dbl>
##  1 DYS438          4   10673 0.000375 <dbl [14]>                5           19
##  2 DYS392          8   15418 0.000519 <dbl [14]>                6           20
##  3 DYS393         15   14264 0.00105  <dbl [12]>                7           18
##  4 DYS385a        32   26171 0.00122  <dbl [23]>                6           28
##  5 DYS385b        32   26171 0.00122  <dbl [23]>                6           28
##  6 DYS643          3    2220 0.00135  <dbl [13]>                4           17
##  7 DYS390         33   15612 0.00211  <dbl [14]>               17           30
##  8 DYS19          36   16090 0.00224  <dbl [12]>                9           20
##  9 DYS391         38   15486 0.00245  <dbl [12]>                5           16
## 10 DYS389I        42   14339 0.00293  <dbl [9]>                 9           17
## # ℹ 11 more rows
…
